<?xml version="1.0" encoding="utf-8"?>
<!-- Generator: Adobe Illustrator 22.1.0, SVG Export Plug-In . SVG Version: 6.00 Build 0)  -->
<svg version="1.1" id="Capa_2_1_" xmlns="http://www.w3.org/2000/svg" xmlns:xlink="http://www.w3.org/1999/xlink" x="0px" y="0px"
	 viewBox="0 0 114.6 114.6" style="enable-background:new 0 0 114.6 114.6;" xml:space="preserve">
<style type="text/css">
	.st0{fill:#FF5722;}
	.st1{fill:#FF7F5C;}
	.st2{fill:#FFFFFF;}
	.st3{fill:#E0E0E0;}
	.st4{fill:#333333;}
	.st5{fill:#FFFFFF;stroke:#333333;stroke-width:2.8314;stroke-miterlimit:10;}
</style>
<g>
	<g>
		<circle class="st0" cx="57.3" cy="57.3" r="56.8"/>
	</g>
	<g>
		<g>
			<g>
				<g>
					<ellipse class="st1" cx="57.3" cy="103.2" rx="2.6" ry="2.7"/>
					<g>
						<g>
							<path class="st1" d="M66.1,107.5c-3-0.9-4.6-4.2-4.6-4.2s3.2-1.7,6.2-0.8s4.6,4.2,4.6,4.2S69,108.4,66.1,107.5z"/>
						</g>
						<path class="st1" d="M61.4,103.3c0,0,3.2-1.7,6.2-0.8s4.6,4.2,4.6,4.2"/>
					</g>
					<g>
						<g>
							<path class="st1" d="M76,104.4c-3.1,0-5.7-2.6-5.7-2.6s2.5-2.6,5.7-2.7c3.1,0,5.7,2.6,5.7,2.6S79.2,104.4,76,104.4z"/>
						</g>
						<path class="st1" d="M70.3,101.8c0,0,2.5-2.6,5.7-2.7c3.1,0,5.7,2.6,5.7,2.6"/>
					</g>
					<g>
						<g>
							<path class="st1" d="M85.6,98.4c-3,0.8-6.2-1-6.2-1s1.7-3.2,4.8-4.1s6.2,1,6.2,1S88.7,97.6,85.6,98.4z"/>
						</g>
						<path class="st1" d="M79.5,97.4c0,0,1.7-3.2,4.8-4.1s6.2,1,6.2,1"/>
					</g>
					<g>
						<g>
							<path class="st1" d="M93,91.4c-2.8,1.3-6.3,0-6.3,0s1.2-3.5,4-4.8s6.3,0,6.3,0S95.8,90.1,93,91.4z"/>
						</g>
						<path class="st1" d="M86.7,91.4c0,0,1.2-3.5,4-4.8s6.3,0,6.3,0"/>
					</g>
					<g>
						<g>
							<path class="st1" d="M98.8,83.9c-2.7,1.6-6.2,0.6-6.2,0.6s0.9-3.6,3.6-5.1c2.7-1.6,6.2-0.6,6.2-0.6S101.5,82.3,98.8,83.9z"/>
						</g>
						<path class="st1" d="M92.5,84.5c0,0,0.9-3.6,3.6-5.1c2.7-1.6,6.2-0.6,6.2-0.6"/>
					</g>
					<g>
						<g>
							<path class="st1" d="M102.9,74.6c-2.1,2.3-5.7,2.5-5.7,2.5s-0.3-3.6,1.8-6c2.1-2.3,5.7-2.5,5.7-2.5S104.9,72.3,102.9,74.6z"
								/>
						</g>
						<path class="st1" d="M97.1,77.1c0,0-0.3-3.6,1.8-6c2.1-2.3,5.7-2.5,5.7-2.5"/>
					</g>
					<g>
						<g>
							<path class="st1" d="M103,65.5c-1.8,2.6-5.4,3.1-5.4,3.1s-0.7-3.6,1.2-6.1c1.8-2.6,5.4-3.1,5.4-3.1S104.9,63,103,65.5z"/>
						</g>
						<path class="st1" d="M97.6,68.6c0,0-0.7-3.6,1.2-6.1c1.8-2.6,5.4-3.1,5.4-3.1"/>
					</g>
					<g>
						<g>
							<path class="st1" d="M71.6,99.6c-2.5,1.8-6.1,1.2-6.1,1.2s0.5-3.6,3.1-5.5c2.5-1.8,6.1-1.2,6.1-1.2S74.1,97.8,71.6,99.6z"/>
						</g>
						<path class="st1" d="M65.4,100.8c0,0,0.5-3.6,3.1-5.5c2.5-1.8,6.1-1.2,6.1-1.2"/>
					</g>
					<g>
						<g>
							<path class="st1" d="M81.9,92.3c-1.2,2.9-4.5,4.3-4.5,4.3s-1.5-3.3-0.3-6.3c1.2-2.9,4.5-4.3,4.5-4.3S83.1,89.4,81.9,92.3z"/>
						</g>
						<path class="st1" d="M77.3,96.6c0,0-1.5-3.3-0.3-6.3c1.2-2.9,4.5-4.3,4.5-4.3"/>
					</g>
					<g>
						<g>
							<path class="st1" d="M88.6,82.7c0.2,3.1-2.2,5.9-2.2,5.9s-2.8-2.3-3-5.5c-0.2-3.1,2.2-5.9,2.2-5.9S88.3,79.5,88.6,82.7z"/>
						</g>
						<path class="st1" d="M86.4,88.5c0,0-2.8-2.3-3-5.5c-0.2-3.1,2.2-5.9,2.2-5.9"/>
					</g>
					<g>
						<g>
							<path class="st1" d="M81.6,35.2c-2.2-2.2-2.1-5.9-2.1-5.9s3.7,0,5.9,2.2c2.2,2.2,2.1,5.9,2.1,5.9S83.8,37.4,81.6,35.2z"/>
						</g>
						<path class="st1" d="M79.5,29.3c0,0,3.7,0,5.9,2.2c2.2,2.2,2.1,5.9,2.1,5.9"/>
					</g>
					<g>
						<g>
							<path class="st1" d="M89.3,38.1c-0.8-3,1-6.2,1-6.2s3.2,1.8,4,4.8s-1,6.2-1,6.2S90.2,41.1,89.3,38.1z"/>
						</g>
						<path class="st1" d="M90.3,31.9c0,0,3.2,1.8,4,4.8s-1,6.2-1,6.2"/>
					</g>
					<g>
						<g>
							<path class="st1" d="M94.8,45.3c0.4-3.1,3.4-5.3,3.4-5.3s2.2,2.9,1.8,6c-0.4,3.1-3.4,5.3-3.4,5.3S94.4,48.4,94.8,45.3z"/>
						</g>
						<path class="st1" d="M98.2,40c0,0,2.2,2.9,1.8,6c-0.4,3.1-3.4,5.3-3.4,5.3"/>
					</g>
					<g>
						<g>
							<path class="st1" d="M97.7,53.1c1.5-2.8,5-3.8,5-3.8s1.1,3.5-0.3,6.3c-1.5,2.8-5,3.8-5,3.8S96.3,55.9,97.7,53.1z"/>
						</g>
						<path class="st1" d="M102.7,49.3c0,0,1.1,3.5-0.3,6.3c-1.5,2.8-5,3.8-5,3.8"/>
					</g>
					<g>
						<g>
							<path class="st1" d="M85.1,45.1c-2.7-1.5-3.6-5.1-3.6-5.1s3.5-1,6.2,0.5s3.6,5.1,3.6,5.1S87.9,46.7,85.1,45.1z"/>
						</g>
						<path class="st1" d="M81.5,40c0,0,3.5-1,6.2,0.5s3.6,5.1,3.6,5.1"/>
					</g>
					<g>
						<g>
							<path class="st1" d="M87.6,52.1c-2.9-1.2-4.3-4.5-4.3-4.5s3.3-1.5,6.3-0.3c2.9,1.2,4.3,4.5,4.3,4.5S90.5,53.3,87.6,52.1z"/>
						</g>
						<path class="st1" d="M83.3,47.6c0,0,3.3-1.5,6.3-0.3c2.9,1.2,4.3,4.5,4.3,4.5"/>
					</g>
					<g>
						<g>
							<path class="st1" d="M89.9,59.9c-2.6-1.8-3.1-5.4-3.1-5.4s3.6-0.7,6.1,1.2c2.6,1.8,3.1,5.4,3.1,5.4S92.4,61.7,89.9,59.9z"/>
						</g>
						<path class="st1" d="M86.8,54.4c0,0,3.6-0.7,6.1,1.2C95.5,57.4,96,61,96,61"/>
					</g>
					<g>
						<g>
							<path class="st1" d="M87.3,75.9c-1.3-2.9,0.1-6.3,0.1-6.3s3.4,1.2,4.7,4.1C93.4,76.6,92,80,92,80S88.6,78.7,87.3,75.9z"/>
						</g>
						<path class="st1" d="M87.4,69.6c0,0,3.4,1.2,4.7,4.1C93.4,76.6,92,80,92,80"/>
					</g>
					<g>
						<g>
							<path class="st1" d="M89.2,67.6c-2-2.5-1.5-6.1-1.5-6.1s3.6,0.4,5.6,2.8c2,2.5,1.5,6.1,1.5,6.1S91.1,70.1,89.2,67.6z"/>
						</g>
						<path class="st1" d="M87.7,61.6c0,0,3.6,0.4,5.6,2.8c2,2.5,1.5,6.1,1.5,6.1"/>
					</g>
					<path class="st1" d="M57.3,100.5c-1.5,0-2.6,1.2-2.6,2.7s1.2,2.7,2.6,2.7"/>
				</g>
			</g>
		</g>
	</g>
	<rect x="13.9" y="40" transform="matrix(0.5 -0.866 0.866 0.5 -19.1266 79.493)" class="st2" width="90.8" height="32.6"/>
	<ellipse transform="matrix(0.4933 -0.8699 0.8699 0.4933 27 79.8839)" class="st3" cx="82.1" cy="16.8" rx="6.2" ry="16.3"/>
	<ellipse transform="matrix(0.4933 -0.8699 0.8699 0.4933 -65.3213 80.2925)" class="st2" cx="36.3" cy="96.2" rx="6.2" ry="16.3"/>
	<ellipse transform="matrix(0.4933 -0.8699 0.8699 0.4933 27 79.8839)" class="st2" cx="82.1" cy="16.8" rx="5.2" ry="13.8"/>
	<ellipse transform="matrix(0.4933 -0.8699 0.8699 0.4933 27 79.8839)" class="st3" cx="82.1" cy="16.8" rx="4.5" ry="12"/>
	<g>
		<g>
			<g>
				<g>
					<path class="st1" d="M38.6,104.4c3.1,0,5.7-2.6,5.7-2.6s-2.5-2.6-5.7-2.7c-3.1,0-5.7,2.6-5.7,2.6S35.5,104.4,38.6,104.4z"/>
				</g>
				<path class="st1" d="M44.3,101.8c0,0-2.5-2.6-5.7-2.7c-3.1,0-5.7,2.6-5.7,2.6"/>
			</g>
		</g>
	</g>
	<g>
		<g>
			<g>
				<g>
					<path class="st1" d="M29,98.4c3,0.8,6.2-1,6.2-1s-1.7-3.2-4.8-4.1s-6.2,1-6.2,1S26,97.6,29,98.4z"/>
				</g>
				<path class="st1" d="M35.2,97.4c0,0-1.7-3.2-4.8-4.1s-6.2,1-6.2,1"/>
			</g>
		</g>
	</g>
	<g>
		<g>
			<g>
				<g>
					<path class="st1" d="M21.7,91.4c2.8,1.3,6.3,0,6.3,0s-1.2-3.5-4-4.8s-6.3,0-6.3,0S18.8,90.1,21.7,91.4z"/>
				</g>
				<path class="st1" d="M27.9,91.4c0,0-1.2-3.5-4-4.8s-6.3,0-6.3,0"/>
			</g>
		</g>
	</g>
	<g>
		<g>
			<g>
				<g>
					<path class="st1" d="M15.9,83.9c2.7,1.6,6.2,0.6,6.2,0.6s-0.9-3.6-3.6-5.1s-6.2-0.6-6.2-0.6S13.2,82.3,15.9,83.9z"/>
				</g>
				<path class="st1" d="M22.1,84.5c0,0-0.9-3.6-3.6-5.1s-6.2-0.6-6.2-0.6"/>
			</g>
		</g>
	</g>
	<g>
		<g>
			<g>
				<g>
					<path class="st1" d="M11.8,74.6c2.1,2.3,5.7,2.5,5.7,2.5s0.3-3.6-1.8-6c-2.1-2.3-5.7-2.5-5.7-2.5S9.7,72.3,11.8,74.6z"/>
				</g>
				<path class="st1" d="M17.5,77.1c0,0,0.3-3.6-1.8-6c-2.1-2.3-5.7-2.5-5.7-2.5"/>
			</g>
		</g>
	</g>
	<g>
		<g>
			<g>
				<g>
					<path class="st1" d="M11.6,65.5c1.8,2.6,5.4,3.1,5.4,3.1s0.7-3.6-1.2-6.1c-1.8-2.6-5.4-3.1-5.4-3.1S9.8,63,11.6,65.5z"/>
				</g>
				<path class="st1" d="M17.1,68.6c0,0,0.7-3.6-1.2-6.1c-1.8-2.6-5.4-3.1-5.4-3.1"/>
			</g>
		</g>
	</g>
	<g>
		<g>
			<g>
				<g>
					<path class="st1" d="M32.8,92.3c1.2,2.9,4.5,4.3,4.5,4.3s1.5-3.3,0.3-6.3c-1.2-2.9-4.5-4.3-4.5-4.3S31.6,89.4,32.8,92.3z"/>
				</g>
				<path class="st1" d="M37.3,96.6c0,0,1.5-3.3,0.3-6.3c-1.2-2.9-4.5-4.3-4.5-4.3"/>
			</g>
		</g>
	</g>
	<g>
		<g>
			<g>
				<g>
					<path class="st1" d="M26.1,82.7c-0.2,3.1,2.2,5.9,2.2,5.9s2.8-2.3,3-5.5s-2.2-5.9-2.2-5.9S26.3,79.5,26.1,82.7z"/>
				</g>
				<path class="st1" d="M28.3,88.5c0,0,2.8-2.3,3-5.5s-2.2-5.9-2.2-5.9"/>
			</g>
		</g>
	</g>
	<g>
		<g>
			<g>
				<g>
					<path class="st1" d="M33.1,35.2c2.2-2.2,2.1-5.9,2.1-5.9s-3.7,0-5.9,2.2s-2.1,5.9-2.1,5.9S30.9,37.4,33.1,35.2z"/>
				</g>
				<path class="st1" d="M35.2,29.3c0,0-3.7,0-5.9,2.2s-2.1,5.9-2.1,5.9"/>
			</g>
		</g>
	</g>
	<g>
		<g>
			<g>
				<g>
					<path class="st1" d="M25.3,38.1c0.8-3-1-6.2-1-6.2s-3.2,1.8-4,4.8s1,6.2,1,6.2S24.5,41.1,25.3,38.1z"/>
				</g>
				<path class="st1" d="M24.3,31.9c0,0-3.2,1.8-4,4.8s1,6.2,1,6.2"/>
			</g>
		</g>
	</g>
	<g>
		<g>
			<g>
				<g>
					<path class="st1" d="M19.8,45.3c-0.4-3.1-3.4-5.3-3.4-5.3s-2.2,2.9-1.8,6s3.4,5.3,3.4,5.3S20.3,48.4,19.8,45.3z"/>
				</g>
				<path class="st1" d="M16.5,40c0,0-2.2,2.9-1.8,6s3.4,5.3,3.4,5.3"/>
			</g>
		</g>
	</g>
	<g>
		<g>
			<g>
				<g>
					<path class="st1" d="M16.9,53.1c-1.5-2.8-5-3.8-5-3.8s-1.1,3.5,0.3,6.3c1.5,2.8,5,3.8,5,3.8S18.4,55.9,16.9,53.1z"/>
				</g>
				<path class="st1" d="M11.9,49.3c0,0-1.1,3.5,0.3,6.3c1.5,2.8,5,3.8,5,3.8"/>
			</g>
		</g>
	</g>
	<g>
		<g>
			<g>
				<g>
					<path class="st1" d="M29.4,45c2.7-1.5,3.7-5,3.7-5s-3.5-1-6.2,0.6s-3.7,5-3.7,5S26.7,46.5,29.4,45z"/>
				</g>
				<path class="st1" d="M33.1,39.9c0,0-3.5-1-6.2,0.6s-3.7,5-3.7,5"/>
			</g>
		</g>
	</g>
	<g>
		<g>
			<g>
				<g>
					<path class="st1" d="M27,52.1c2.9-1.2,4.3-4.5,4.3-4.5S28,46.1,25,47.3s-4.3,4.5-4.3,4.5S24.1,53.3,27,52.1z"/>
				</g>
				<path class="st1" d="M31.3,47.6c0,0-3.3-1.5-6.3-0.3s-4.3,4.5-4.3,4.5"/>
			</g>
		</g>
	</g>
	<g>
		<g>
			<g>
				<g>
					<path class="st1" d="M24.8,59.9c2.6-1.8,3.1-5.4,3.1-5.4s-3.6-0.7-6.1,1.2s-3.1,5.4-3.1,5.4S22.2,61.7,24.8,59.9z"/>
				</g>
				<path class="st1" d="M27.9,54.4c0,0-3.6-0.7-6.1,1.2S18.7,61,18.7,61"/>
			</g>
		</g>
	</g>
	<g>
		<g>
			<g>
				<g>
					<path class="st1" d="M27.3,75.9c1.3-2.9-0.1-6.3-0.1-6.3s-3.4,1.2-4.7,4.1s0.1,6.3,0.1,6.3S26,78.7,27.3,75.9z"/>
				</g>
				<path class="st1" d="M27.3,69.6c0,0-3.4,1.2-4.7,4.1c-1.3,2.9,0.1,6.3,0.1,6.3"/>
			</g>
		</g>
	</g>
	<g>
		<g>
			<g>
				<g>
					<path class="st1" d="M25.5,67.6c2-2.5,1.5-6.1,1.5-6.1s-3.6,0.4-5.6,2.8s-1.5,6.1-1.5,6.1S23.5,70.1,25.5,67.6z"/>
				</g>
				<path class="st1" d="M27,61.6c0,0-3.6,0.4-5.6,2.8s-1.5,6.1-1.5,6.1"/>
			</g>
		</g>
	</g>
	<polygon class="st4" points="75.2,91.5 70.2,87.7 65.1,91.4 65.1,59.5 75.2,61.3 	"/>
	<path class="st4" d="M69.2,71.7l-4.5-0.9c-9.7-1.9-18.4-7.4-24.2-15.5L40.2,55l6-10.4l0,0c5.8,8.1,14.4,13.8,24.2,15.7l4.8,1
		L69.2,71.7z"/>
	<circle class="st5" cx="55.6" cy="60.5" r="13.2"/>
	<g>
		<g>
			<path class="st1" d="M48.6,107.5c3-0.9,4.6-4.2,4.6-4.2s-3.2-1.7-6.2-0.8c-3,0.9-4.6,4.2-4.6,4.2S45.6,108.4,48.6,107.5z"/>
		</g>
		<path class="st1" d="M53.2,103.3c0,0-3.2-1.7-6.2-0.8c-3,0.9-4.6,4.2-4.6,4.2"/>
	</g>
	<g>
		<g>
			<path class="st1" d="M43.1,99.6c2.5,1.8,6.1,1.2,6.1,1.2s-0.5-3.6-3.1-5.5S40,94.2,40,94.2S40.5,97.8,43.1,99.6z"/>
		</g>
		<path class="st1" d="M49.2,100.8c0,0-0.5-3.6-3.1-5.5S40,94.2,40,94.2"/>
	</g>
	<g>
		<path class="st4" d="M53.2,70.3l7.7-10.9c0.1-0.1,0-0.3-0.1-0.3h-4l2.5-8.1c0.1-0.2-0.2-0.3-0.3-0.1l-7.6,10.8
			c-0.1,0.1,0,0.2,0.1,0.3l3.9,0.1v0.1l-2.4,8C52.9,70.3,53.1,70.5,53.2,70.3z"/>
	</g>
</g>
</svg>
