<?xml version="1.0" encoding="utf-8"?>
<!-- Generator: Adobe Illustrator 22.1.0, SVG Export Plug-In . SVG Version: 6.00 Build 0)  -->
<svg version="1.1" id="Capa_2_1_" xmlns="http://www.w3.org/2000/svg" xmlns:xlink="http://www.w3.org/1999/xlink" x="0px" y="0px"
	 viewBox="0 0 114.6 114.6" style="enable-background:new 0 0 114.6 114.6;" xml:space="preserve">
<style type="text/css">
	.st0{fill:#FF5722;}
	.st1{fill:#FF7F5C;}
	.st2{fill:#333333;}
	.st3{fill:#FFFFFF;}
	.st4{fill:#E0E0E0;}
</style>
<g>
	<g>
		<circle class="st0" cx="57.3" cy="57.3" r="56.8"/>
	</g>
	<g>
		<g>
			<g>
				<g>
					<ellipse class="st1" cx="56.3" cy="99.9" rx="2.6" ry="2.7"/>
					<g>
						<g>
							<path class="st1" d="M65.1,104.1c-3-0.9-4.6-4.2-4.6-4.2s3.2-1.7,6.2-0.8c3,0.9,4.6,4.2,4.6,4.2S68,105.1,65.1,104.1z"/>
						</g>
						<path class="st1" d="M60.4,99.9c0,0,3.2-1.7,6.2-0.8c3,0.9,4.6,4.2,4.6,4.2"/>
					</g>
					<g>
						<g>
							<path class="st1" d="M75,101.1c-3.1,0-5.7-2.6-5.7-2.6s2.5-2.6,5.7-2.7c3.1,0,5.7,2.6,5.7,2.6S78.2,101.1,75,101.1z"/>
						</g>
						<path class="st1" d="M69.3,98.5c0,0,2.5-2.6,5.7-2.7c3.1,0,5.7,2.6,5.7,2.6"/>
					</g>
					<g>
						<g>
							<path class="st1" d="M84.6,95.1c-3,0.8-6.2-1-6.2-1s1.7-3.2,4.8-4.1s6.2,1,6.2,1S87.7,94.2,84.6,95.1z"/>
						</g>
						<path class="st1" d="M78.5,94.1c0,0,1.7-3.2,4.8-4.1s6.2,1,6.2,1"/>
					</g>
					<g>
						<g>
							<path class="st1" d="M92,88.1c-2.8,1.3-6.3,0-6.3,0s1.2-3.5,4-4.8s6.3,0,6.3,0S94.8,86.7,92,88.1z"/>
						</g>
						<path class="st1" d="M85.7,88.1c0,0,1.2-3.5,4-4.8s6.3,0,6.3,0"/>
					</g>
					<g>
						<g>
							<path class="st1" d="M97.8,80.6c-2.7,1.6-6.2,0.6-6.2,0.6s0.9-3.6,3.6-5.1c2.7-1.6,6.2-0.6,6.2-0.6S100.5,79,97.8,80.6z"/>
						</g>
						<path class="st1" d="M91.5,81.2c0,0,0.9-3.6,3.6-5.1c2.7-1.6,6.2-0.6,6.2-0.6"/>
					</g>
					<g>
						<g>
							<path class="st1" d="M101.9,71.3c-2.1,2.3-5.7,2.5-5.7,2.5s-0.3-3.6,1.8-6s5.7-2.5,5.7-2.5S104,68.9,101.9,71.3z"/>
						</g>
						<path class="st1" d="M96.1,73.8c0,0-0.3-3.6,1.8-6s5.7-2.5,5.7-2.5"/>
					</g>
					<g>
						<g>
							<path class="st1" d="M102,62.2c-1.8,2.6-5.4,3.1-5.4,3.1s-0.7-3.6,1.2-6.1c1.8-2.6,5.4-3.1,5.4-3.1S103.9,59.7,102,62.2z"/>
						</g>
						<path class="st1" d="M96.6,65.3c0,0-0.7-3.6,1.2-6.1c1.8-2.6,5.4-3.1,5.4-3.1"/>
					</g>
					<g>
						<g>
							<path class="st1" d="M70.6,96.3c-2.5,1.8-6.1,1.2-6.1,1.2s0.5-3.6,3.1-5.5c2.5-1.8,6.1-1.2,6.1-1.2S73.1,94.4,70.6,96.3z"/>
						</g>
						<path class="st1" d="M64.4,97.5c0,0,0.5-3.6,3.1-5.5c2.5-1.8,6.1-1.2,6.1-1.2"/>
					</g>
					<g>
						<g>
							<path class="st1" d="M80.9,89c-1.2,2.9-4.5,4.3-4.5,4.3S74.9,89.9,76,87c1.2-2.9,4.5-4.3,4.5-4.3S82.1,86,80.9,89z"/>
						</g>
						<path class="st1" d="M76.3,93.3c0,0-1.5-3.3-0.3-6.3c1.2-2.9,4.5-4.3,4.5-4.3"/>
					</g>
					<g>
						<g>
							<path class="st1" d="M87.6,79.3c0.2,3.1-2.2,5.9-2.2,5.9s-2.8-2.3-3-5.5s2.2-5.9,2.2-5.9S87.3,76.2,87.6,79.3z"/>
						</g>
						<path class="st1" d="M85.4,85.2c0,0-2.8-2.3-3-5.5s2.2-5.9,2.2-5.9"/>
					</g>
					<g>
						<g>
							<path class="st1" d="M80.6,31.9c-2.2-2.2-2.1-5.9-2.1-5.9s3.7,0,5.9,2.2c2.2,2.2,2.1,5.9,2.1,5.9S82.8,34.1,80.6,31.9z"/>
						</g>
						<path class="st1" d="M78.5,26c0,0,3.7,0,5.9,2.2c2.2,2.2,2.1,5.9,2.1,5.9"/>
					</g>
					<g>
						<g>
							<path class="st1" d="M88.3,34.8c-0.8-3,1-6.2,1-6.2s3.2,1.8,4,4.8s-1,6.2-1,6.2S89.2,37.8,88.3,34.8z"/>
						</g>
						<path class="st1" d="M89.4,28.6c0,0,3.2,1.8,4,4.8s-1,6.2-1,6.2"/>
					</g>
					<g>
						<g>
							<path class="st1" d="M93.8,41.9c0.4-3.1,3.4-5.3,3.4-5.3s2.2,2.9,1.8,6c-0.4,3.1-3.4,5.3-3.4,5.3S93.4,45,93.8,41.9z"/>
						</g>
						<path class="st1" d="M97.2,36.7c0,0,2.2,2.9,1.8,6c-0.4,3.1-3.4,5.3-3.4,5.3"/>
					</g>
					<g>
						<g>
							<path class="st1" d="M96.8,49.8c1.5-2.8,5-3.8,5-3.8s1.1,3.5-0.3,6.3c-1.5,2.8-5,3.8-5,3.8S95.3,52.5,96.8,49.8z"/>
						</g>
						<path class="st1" d="M101.7,46c0,0,1.1,3.5-0.3,6.3c-1.5,2.8-5,3.8-5,3.8"/>
					</g>
					<g>
						<g>
							<path class="st1" d="M84.1,41.8c-2.7-1.5-3.6-5.1-3.6-5.1s3.5-1,6.2,0.5s3.6,5.1,3.6,5.1S86.9,43.3,84.1,41.8z"/>
						</g>
						<path class="st1" d="M80.5,36.7c0,0,3.5-1,6.2,0.5s3.6,5.1,3.6,5.1"/>
					</g>
					<g>
						<g>
							<path class="st1" d="M86.6,48.8c-2.9-1.2-4.3-4.5-4.3-4.5s3.3-1.5,6.3-0.3c2.9,1.2,4.3,4.5,4.3,4.5S89.5,49.9,86.6,48.8z"/>
						</g>
						<path class="st1" d="M82.3,44.2c0,0,3.3-1.5,6.3-0.3c2.9,1.2,4.3,4.5,4.3,4.5"/>
					</g>
					<g>
						<g>
							<path class="st1" d="M88.9,56.5c-2.6-1.8-3.1-5.4-3.1-5.4s3.6-0.7,6.1,1.2c2.6,1.8,3.1,5.4,3.1,5.4S91.4,58.4,88.9,56.5z"/>
						</g>
						<path class="st1" d="M85.8,51.1c0,0,3.6-0.7,6.1,1.2c2.6,1.8,3.1,5.4,3.1,5.4"/>
					</g>
					<g>
						<g>
							<path class="st1" d="M86.3,72.5c-1.3-2.9,0.1-6.3,0.1-6.3s3.4,1.2,4.7,4.1c1.3,2.9-0.1,6.3-0.1,6.3S87.6,75.4,86.3,72.5z"/>
						</g>
						<path class="st1" d="M86.4,66.3c0,0,3.4,1.2,4.7,4.1c1.3,2.9-0.1,6.3-0.1,6.3"/>
					</g>
					<g>
						<g>
							<path class="st1" d="M88.2,64.3c-2-2.5-1.5-6.1-1.5-6.1s3.6,0.4,5.6,2.8c2,2.5,1.5,6.1,1.5,6.1S90.1,66.8,88.2,64.3z"/>
						</g>
						<path class="st1" d="M86.7,58.2c0,0,3.6,0.4,5.6,2.8c2,2.5,1.5,6.1,1.5,6.1"/>
					</g>
					<path class="st1" d="M56.3,97.2c-1.5,0-2.6,1.2-2.6,2.7s1.2,2.7,2.6,2.7"/>
					<g>
						<g>
							<path class="st1" d="M47.6,104.1c3-0.9,4.6-4.2,4.6-4.2S49,98.2,46,99.1s-4.6,4.2-4.6,4.2S44.6,105.1,47.6,104.1z"/>
						</g>
						<path class="st1" d="M52.2,99.9c0,0-3.2-1.7-6.2-0.8c-3,0.9-4.6,4.2-4.6,4.2"/>
					</g>
					<g>
						<g>
							<path class="st1" d="M42.1,96.3c2.5,1.8,6.1,1.2,6.1,1.2s-0.5-3.6-3.1-5.5c-2.5-1.8-6.1-1.2-6.1-1.2S39.5,94.4,42.1,96.3z"/>
						</g>
						<path class="st1" d="M48.2,97.5c0,0-0.5-3.6-3.1-5.5c-2.5-1.8-6.1-1.2-6.1-1.2"/>
					</g>
				</g>
			</g>
		</g>
	</g>
	<g>
		<g>
			<path class="st2" d="M35.3,78.1l-1.2-5.9L33,66.3l-0.4-2.1C32.1,62,30,60.6,27.8,61s-3.6,2.6-3.2,4.7l4.5,22.9
				c0.4,2.2,2.6,3.6,4.7,3.2c2.2-0.4,3.6-2.6,3.2-4.7l-0.6-3L35.3,78.1z"/>
		</g>
		<polygon class="st2" points="37.2,73.5 24.5,72.6 20.8,56.1 31.9,49.8 		"/>
		<polygon class="st2" points="8.8,55 21.5,55.9 25.2,72.4 14.1,78.7 		"/>
		<path class="st3" d="M96.9,80.4l-60.2-6.6l-5.4-24.2L83,18.2c0.8-0.5,1.8,0,2,0.9l13.4,59.6C98.5,79.7,97.8,80.5,96.9,80.4z"/>
		<polygon class="st2" points="31.3,50.1 36.6,73.5 27.1,72.8 25.2,53.6 		"/>
		
			<ellipse transform="matrix(0.9715 -0.2372 0.2372 0.9715 -9.0543 23.1343)" class="st3" cx="91.6" cy="49.2" rx="13.3" ry="32.1"/>
		
			<ellipse transform="matrix(0.9715 -0.2372 0.2372 0.9715 -9.0969 23.2087)" class="st4" cx="91.9" cy="49.4" rx="12.1" ry="30.2"/>
		<ellipse transform="matrix(0.9779 -0.209 0.209 0.9779 -13.733 3.8398)" class="st2" cx="11.3" cy="66.9" rx="4.8" ry="12.1"/>
		<path class="st0" d="M98.9,47.5c1.3,6.5-2.9,12.9-9.5,14.2S78.2,39.3,84.7,38C91.3,36.8,97.6,41,98.9,47.5z"/>
	</g>
	<g>
		<g>
			<g>
				<g>
					<path class="st1" d="M37.6,101.1c3.1,0,5.7-2.6,5.7-2.6s-2.5-2.6-5.7-2.7c-3.1,0-5.7,2.6-5.7,2.6S34.5,101.1,37.6,101.1z"/>
				</g>
				<path class="st1" d="M43.3,98.5c0,0-2.5-2.6-5.7-2.7c-3.1,0-5.7,2.6-5.7,2.6"/>
			</g>
		</g>
	</g>
	<g>
		<g>
			<g>
				<g>
					<path class="st1" d="M28,95.1c3,0.8,6.2-1,6.2-1s-1.7-3.2-4.8-4.1s-6.2,1-6.2,1S25,94.2,28,95.1z"/>
				</g>
				<path class="st1" d="M34.2,94.1c0,0-1.7-3.2-4.8-4.1s-6.2,1-6.2,1"/>
			</g>
		</g>
	</g>
	<g>
		<g>
			<g>
				<g>
					<path class="st1" d="M20.7,88.1c2.8,1.3,6.3,0,6.3,0s-1.2-3.5-4-4.8s-6.3,0-6.3,0S17.8,86.7,20.7,88.1z"/>
				</g>
				<path class="st1" d="M26.9,88.1c0,0-1.2-3.5-4-4.8s-6.3,0-6.3,0"/>
			</g>
		</g>
	</g>
	<g>
		<g>
			<g>
				<g>
					<path class="st1" d="M14.9,80.6c2.7,1.6,6.2,0.6,6.2,0.6s-0.9-3.6-3.6-5.1s-6.2-0.6-6.2-0.6S12.2,79,14.9,80.6z"/>
				</g>
				<path class="st1" d="M21.1,81.2c0,0-0.9-3.6-3.6-5.1s-6.2-0.6-6.2-0.6"/>
			</g>
		</g>
	</g>
	<g>
		<g>
			<g>
				<g>
					<path class="st1" d="M10.8,71.3c2.1,2.3,5.7,2.5,5.7,2.5s0.3-3.6-1.8-6S9,65.3,9,65.3S8.7,68.9,10.8,71.3z"/>
				</g>
				<path class="st1" d="M16.5,73.8c0,0,0.3-3.6-1.8-6S9,65.3,9,65.3"/>
			</g>
		</g>
	</g>
	<g>
		<g>
			<g>
				<g>
					<path class="st1" d="M10.6,62.2c1.8,2.6,5.4,3.1,5.4,3.1s0.7-3.6-1.2-6.1s-5.4-3.1-5.4-3.1S8.8,59.7,10.6,62.2z"/>
				</g>
				<path class="st1" d="M16.1,65.3c0,0,0.7-3.6-1.2-6.1s-5.4-3.1-5.4-3.1"/>
			</g>
		</g>
	</g>
	<g>
		<g>
			<g>
				<g>
					<path class="st1" d="M31.8,89c1.2,2.9,4.5,4.3,4.5,4.3s1.5-3.3,0.3-6.3c-1.2-2.9-4.5-4.3-4.5-4.3S30.6,86,31.8,89z"/>
				</g>
				<path class="st1" d="M36.3,93.3c0,0,1.5-3.3,0.3-6.3c-1.2-2.9-4.5-4.3-4.5-4.3"/>
			</g>
		</g>
	</g>
	<g>
		<g>
			<g>
				<g>
					<path class="st1" d="M25.1,79.3c-0.2,3.1,2.2,5.9,2.2,5.9s2.8-2.3,3-5.5s-2.2-5.9-2.2-5.9S25.3,76.2,25.1,79.3z"/>
				</g>
				<path class="st1" d="M27.3,85.2c0,0,2.8-2.3,3-5.5s-2.2-5.9-2.2-5.9"/>
			</g>
		</g>
	</g>
	<g>
		<g>
			<g>
				<g>
					<path class="st1" d="M32.1,31.9c2.2-2.2,2.1-5.9,2.1-5.9s-3.7,0-5.9,2.2s-2.1,5.9-2.1,5.9S29.9,34.1,32.1,31.9z"/>
				</g>
				<path class="st1" d="M34.2,26c0,0-3.7,0-5.9,2.2s-2.1,5.9-2.1,5.9"/>
			</g>
		</g>
	</g>
	<g>
		<g>
			<g>
				<g>
					<path class="st1" d="M24.3,34.8c0.8-3-1-6.2-1-6.2s-3.2,1.8-4,4.8s1,6.2,1,6.2S23.5,37.8,24.3,34.8z"/>
				</g>
				<path class="st1" d="M23.3,28.6c0,0-3.2,1.8-4,4.8s1,6.2,1,6.2"/>
			</g>
		</g>
	</g>
	<g>
		<g>
			<g>
				<g>
					<path class="st1" d="M18.8,41.9c-0.4-3.1-3.4-5.3-3.4-5.3s-2.2,2.9-1.8,6s3.4,5.3,3.4,5.3S19.3,45,18.8,41.9z"/>
				</g>
				<path class="st1" d="M15.5,36.7c0,0-2.2,2.9-1.8,6s3.4,5.3,3.4,5.3"/>
			</g>
		</g>
	</g>
	<g>
		<g>
			<g>
				<g>
					<path class="st1" d="M15.9,49.8c-1.5-2.8-5-3.8-5-3.8s-1.1,3.5,0.3,6.3s5,3.8,5,3.8S17.4,52.5,15.9,49.8z"/>
				</g>
				<path class="st1" d="M10.9,46c0,0-1.1,3.5,0.3,6.3s5,3.8,5,3.8"/>
			</g>
		</g>
	</g>
	<g>
		<g>
			<g>
				<g>
					<path class="st1" d="M28.4,41.6c2.7-1.5,3.7-5,3.7-5s-3.5-1-6.2,0.6s-3.7,5-3.7,5S25.7,43.2,28.4,41.6z"/>
				</g>
				<path class="st1" d="M32.1,36.6c0,0-3.5-1-6.2,0.6s-3.7,5-3.7,5"/>
			</g>
		</g>
	</g>
	<g>
		<g>
			<g>
				<g>
					<path class="st1" d="M26,48.8c2.9-1.2,4.3-4.5,4.3-4.5S27,42.8,24,44c-2.9,1.2-4.3,4.5-4.3,4.5S23.1,49.9,26,48.8z"/>
				</g>
				<path class="st1" d="M30.3,44.2c0,0-3.3-1.5-6.3-0.3c-2.9,1.2-4.3,4.5-4.3,4.5"/>
			</g>
		</g>
	</g>
	<g>
		<g>
			<g>
				<g>
					<path class="st1" d="M23.8,56.5c2.6-1.8,3.1-5.4,3.1-5.4s-3.6-0.7-6.1,1.2c-2.6,1.8-3.1,5.4-3.1,5.4S21.3,58.4,23.8,56.5z"/>
				</g>
				<path class="st1" d="M26.9,51.1c0,0-3.6-0.7-6.1,1.2c-2.6,1.8-3.1,5.4-3.1,5.4"/>
			</g>
		</g>
	</g>
	<g>
		<g>
			<g>
				<g>
					<path class="st1" d="M26.3,72.5c1.3-2.9-0.1-6.3-0.1-6.3s-3.4,1.2-4.7,4.1s0.1,6.3,0.1,6.3S25,75.4,26.3,72.5z"/>
				</g>
				<path class="st1" d="M26.3,66.3c0,0-3.4,1.2-4.7,4.1c-1.3,2.9,0.1,6.3,0.1,6.3"/>
			</g>
		</g>
	</g>
	<g>
		<g>
			<g>
				<g>
					<path class="st1" d="M24.5,64.3c2-2.5,1.5-6.1,1.5-6.1s-3.6,0.4-5.6,2.8s-1.5,6.1-1.5,6.1S22.5,66.8,24.5,64.3z"/>
				</g>
				<path class="st1" d="M26,58.2c0,0-3.6,0.4-5.6,2.8s-1.5,6.1-1.5,6.1"/>
			</g>
		</g>
	</g>
	<g>
		<path class="st2" d="M53.3,44.3c0,0,9.5,3.4,7.9,11.5c-0.4,1.5-1.3,3.1-3.4,4.4c-2.1,1.3-5.2,3.3-2.6,8.1c0,0-10.5-3.9-7.6-12.5
			c0.8-2.4,4-3.9,4.8-4.9C53.4,50,55.5,49,53.3,44.3z"/>
		<path class="st2" d="M62.5,58.8c0,0-1.3,2.7-4.3,4.3c-2,1.1-2,4.2-0.3,5.3C59.9,69.8,63.4,67.6,62.5,58.8z"/>
	</g>
</g>
</svg>
