<?xml version="1.0" encoding="utf-8"?>
<!-- Generator: Adobe Illustrator 22.1.0, SVG Export Plug-In . SVG Version: 6.00 Build 0)  -->
<svg version="1.1" id="Capa_1" xmlns="http://www.w3.org/2000/svg" xmlns:xlink="http://www.w3.org/1999/xlink" x="0px" y="0px"
	 viewBox="0 0 108.6 108.6" style="enable-background:new 0 0 108.6 108.6;" xml:space="preserve">
<style type="text/css">
	.st0{fill:#FF5722;}
	.st1{fill:#515151;}
	.st2{fill:#FFFFFF;}
	.st3{fill:#E4E3E3;}
</style>
<title>Recurso 10</title>
<g>
	<g id="Capa_2-2">
		<g id="Capa_2-3">
			<g id="Capa_2-2-2">
				<path class="st0" d="M0,54.4C0,24.4,24.2,0,54.2,0s54.3,24.2,54.4,54.2s-24.2,54.3-54.2,54.4C24.4,108.6,0.1,84.3,0,54.4z"/>
			</g>
		</g>
	</g>
	<g>
		<path class="st1" d="M59.6,19.4V16c0-2.9-2.4-5.3-5.3-5.3S49,13.1,49,16v3.4L59.6,19.4z"/>
		<path class="st2" d="M49,19.4C36.9,21.9,27.9,32.2,27.9,45c0,16.9-6,22-9.2,25.5c-1,1.1-1.4,2.3-1.4,3.6c0,0.8,0.2,1.5,0.5,2.2
			C18.6,78,23,85.1,55,85.1c31,0,35.1-7.2,35.9-9c0.3-0.6,0.4-1.3,0.4-2c0-1.2-0.4-2.5-1.4-3.6c-3.2-3.4-9.2-8.6-9.2-25.5
			c0-12.8-9-23.1-21.1-25.6L49,19.4z"/>
		
			<ellipse transform="matrix(2.408233e-03 -1 1 2.408233e-03 -21.3099 129.5973)" class="st3" cx="54.3" cy="75.5" rx="8" ry="34.4"/>
		<path class="st0" d="M54.6,80.6c-4-0.2-7.1-3.6-7-7.6l0,0c0.3-4,14.8-3.3,14.6,0.7C62.1,77.7,58.6,80.8,54.6,80.6L54.6,80.6z"/>
	</g>
</g>
</svg>
