<?xml version="1.0" encoding="utf-8"?>
<!-- Generator: Adobe Illustrator 22.0.1, SVG Export Plug-In . SVG Version: 6.00 Build 0)  -->
<svg version="1.1" id="Capa_2" xmlns="http://www.w3.org/2000/svg" xmlns:xlink="http://www.w3.org/1999/xlink" x="0px" y="0px"
	 viewBox="0 0 153.1 38.5" style="enable-background:new 0 0 153.1 38.5;" xml:space="preserve">
<style type="text/css">
	.st0{fill:#504F4B;}
	.st1{fill:#61BC74;}
	.st2{fill:#EBEBEB;}
	.st3{fill:#BD4E11;}
	.st4{fill:#E4E4E4;}
	.st5{fill:#FFFFFF;}
	.st6{fill:#4F4D49;}
	.st7{fill:#8CB7B7;}
	.st8{opacity:0.63;}
	.st9{fill:#F6F6F6;}
	.st10{fill:#333333;}
	.st11{fill:#D1D1D1;}
</style>
<g>
	<polygon class="st11" points="153,27.3 108.4,27.3 108.4,1.2 153,1.2 142.8,14.3 	"/>
	<polygon class="st11" points="0.9,1.2 45.5,1.2 45.5,27.3 0.9,27.3 11,14.3 	"/>
	<rect x="26.5" y="11.1" class="st4" width="102.6" height="26"/>
</g>
</svg>
