<?xml version="1.0" encoding="utf-8"?>
<!-- Generator: Adobe Illustrator 22.0.1, SVG Export Plug-In . SVG Version: 6.00 Build 0)  -->
<svg version="1.1" id="Capa_2" xmlns="http://www.w3.org/2000/svg" xmlns:xlink="http://www.w3.org/1999/xlink" x="0px" y="0px"
	 viewBox="0 0 114.6 114.6" style="enable-background:new 0 0 114.6 114.6;" xml:space="preserve">
<style type="text/css">
	.st0{fill:#FF5722;}
	.st1{fill:#464740;}
	.st2{fill:#FDFDFD;}
	.st3{fill:#FFFFFF;}
	.st4{fill:#4F4D49;}
	.st5{fill:#8CB7B7;}
	.st6{opacity:0.63;fill:#FFFFFF;}
	.st7{fill:#EEF2F2;}
	.st8{fill:#4F4C48;}
	.st9{fill:#5A5A52;}
	.st10{fill:#282828;}
	.st11{fill:#454540;}
	.st12{fill:#4F4C48;stroke:#676461;stroke-width:1.3148;stroke-miterlimit:10;}
	.st13{fill:#454544;}
	.st14{fill:none;stroke:#5A5A52;stroke-width:5;stroke-miterlimit:10;}
	.st15{fill:none;stroke:#5A5A52;stroke-width:2;stroke-miterlimit:10;}
	.st16{fill:#353738;}
	.st17{clip-path:url(#SVGID_2_);fill:#D4D5D5;}
	.st18{clip-path:url(#SVGID_4_);fill:none;stroke:#222628;stroke-width:0.3035;stroke-miterlimit:10;}
	.st19{fill:#222628;}
	.st20{fill:none;stroke:#4F4D49;stroke-width:3.4505;stroke-linecap:round;stroke-linejoin:round;stroke-miterlimit:10;}
	.st21{fill:none;stroke:#4F4C48;stroke-width:3.4505;stroke-linecap:round;stroke-linejoin:round;stroke-miterlimit:10;}
</style>
<g>
	<circle class="st0" cx="57.3" cy="57.3" r="54.3"/>
	<g>
		<path class="st3" d="M100.2,56.7c0,0-19,26.3-42.5,26.3S15.3,56.7,15.3,56.7s19-26.3,42.5-26.3S100.2,56.7,100.2,56.7z"/>
		<circle class="st4" cx="57.8" cy="56.8" r="21"/>
		<circle class="st5" cx="57.8" cy="56.8" r="16.5"/>
		<circle class="st4" cx="57.8" cy="56.8" r="10"/>
		<ellipse class="st6" cx="61.4" cy="47.1" rx="3.4" ry="3.5"/>
		<ellipse class="st6" cx="65.9" cy="42.4" rx="1.8" ry="1.9"/>
	</g>
</g>
</svg>
