<!-- Generated by IcoMoon.io -->
<svg version="1.1" 
    xmlns="http://www.w3.org/2000/svg" width="100" height="100" viewBox="0 0 31 32">
    <style type="text/css">
    .st0{fill:#EEEEEE;}
    .st1{fill:#B24E11;}
    </style>
    <title>logo_ireact_R</title>
    <rect width="100" height="100" />
</svg>
