<?xml version="1.0" encoding="utf-8"?>
<!-- Generator: Adobe Illustrator 21.1.0, SVG Export Plug-In . SVG Version: 6.00 Build 0)  -->
<svg version="1.1" id="Capa_1" 
	xmlns="http://www.w3.org/2000/svg" 
	xmlns:xlink="http://www.w3.org/1999/xlink" x="0px" y="0px" viewBox="0 0 130.4 129.4" style="enable-background:new 0 0 130.4 129.4;" xml:space="preserve">
	<style type="text/css">
	.st0{fill:#8AB2B8;}
	.st1{fill:#B24E11;}
	.st2{fill:#FFFFFF;}
	.st3{fill:#504F4B;}
	.st4{fill:#6C3300;}
	</style>
	<rect width="100" height="100" />
</svg>
