<?xml version="1.0" encoding="utf-8"?>
<!-- Generator: Adobe Illustrator 21.0.0, SVG Export Plug-In . SVG Version: 6.00 Build 0)  -->
<svg version="1.1" id="Capa_1" 
	xmlns="http://www.w3.org/2000/svg" 
	xmlns:xlink="http://www.w3.org/1999/xlink" x="0px" y="0px" viewBox="0 0 180 239" style="enable-background:new 0 0 180 239;" xml:space="preserve">
	<style type="text/css">
	.st0{clip-path:url(#SVGID_2_);fill:#CF6041;}
	.st1{clip-path:url(#SVGID_2_);fill:#EDCB97;}
	.st2{clip-path:url(#SVGID_2_);fill:#E8BB84;}
	.st3{clip-path:url(#SVGID_2_);fill:#767A80;}
	.st4{clip-path:url(#SVGID_2_);fill:#E8CDA6;}
	.st5{clip-path:url(#SVGID_2_);fill:#C3C3C3;}
	.st6{clip-path:url(#SVGID_2_);fill:#70747C;}
	.st7{clip-path:url(#SVGID_2_);fill:#2D3A49;}
	.st8{fill:none;stroke:#504F4B;stroke-width:2;stroke-linecap:round;stroke-linejoin:round;stroke-miterlimit:10;}
	.st9{clip-path:url(#SVGID_4_);fill:#CF6041;}
	.st10{clip-path:url(#SVGID_4_);fill:#E8CDA6;}
	.st11{clip-path:url(#SVGID_4_);fill:#E8CEA8;}
	.st12{clip-path:url(#SVGID_4_);}
	.st13{fill:#ECD1AA;}
	.st14{fill:#26323E;}
	.st15{fill:#ECCB9A;}
	.st16{fill:#4C6970;}
	.st17{fill:#F2F2F1;}
	.st18{fill:#E5BB86;}
	.st19{fill:#E8CEA8;}
	.st20{fill:#2C3A48;}
	.st21{opacity:0.1;fill:#2D3A49;}
	.st22{fill:#303B4A;}
	.st23{fill:#2D3A49;}
	.st24{fill:#E1E1DF;}
	.st25{clip-path:url(#SVGID_10_);fill:#95BDC3;}
	.st26{clip-path:url(#SVGID_10_);fill:#F4E0C6;}
	.st27{clip-path:url(#SVGID_10_);fill:#E2C9AF;}
	.st28{clip-path:url(#SVGID_10_);fill:#AA4444;}
	.st29{clip-path:url(#SVGID_10_);fill:#EAD2B5;}
	.st30{clip-path:url(#SVGID_10_);fill:#A04242;}
	.st31{clip-path:url(#SVGID_10_);fill:#DDB237;}
	.st32{clip-path:url(#SVGID_10_);fill:#E8CDA6;}
	.st33{clip-path:url(#SVGID_12_);fill:#CF6041;}
	.st34{clip-path:url(#SVGID_12_);fill:#C4A578;}
	.st35{clip-path:url(#SVGID_12_);fill:#A58760;}
	.st36{clip-path:url(#SVGID_12_);fill:#95BDC3;}
	.st37{clip-path:url(#SVGID_12_);}
	.st38{clip-path:url(#SVGID_14_);}
	.st39{fill:#95BDC3;}
	.st40{fill:#E7F6F7;}
	.st41{fill:#CAEBEF;}
	.st42{clip-path:url(#SVGID_12_);fill:#AF9268;}
	.st43{clip-path:url(#SVGID_12_);fill:#C3C3C3;}
	.st44{opacity:0.42;clip-path:url(#SVGID_12_);fill:#8AB8BC;}
	.st45{clip-path:url(#SVGID_12_);fill:#2D3A49;}
	.st46{clip-path:url(#SVGID_12_);fill:#E8CDA6;}
	.st47{clip-path:url(#SVGID_16_);fill:#95BDC3;}
	.st48{clip-path:url(#SVGID_16_);fill:#767A80;}
	.st49{clip-path:url(#SVGID_16_);fill:#70747C;}
	.st50{clip-path:url(#SVGID_16_);}
	.st51{clip-path:url(#SVGID_18_);}
	.st52{fill:#504F4B;}
	.st53{clip-path:url(#SVGID_16_);fill:#F4E0C6;}
	.st54{clip-path:url(#SVGID_16_);fill:#EAD2B5;}
	.st55{clip-path:url(#SVGID_16_);fill:#C3C3C3;}
	.st56{opacity:0.19;clip-path:url(#SVGID_16_);fill:#70747C;}
	.st57{clip-path:url(#SVGID_16_);fill:#A0835D;}
	.st58{clip-path:url(#SVGID_16_);fill:#E8CDA6;}
	.st59{clip-path:url(#SVGID_20_);fill:#95BDC3;}
	.st60{clip-path:url(#SVGID_20_);fill:#EDCB97;}
	.st61{clip-path:url(#SVGID_20_);fill:#E8BB84;}
	.st62{clip-path:url(#SVGID_20_);fill:#504F4B;}
	.st63{clip-path:url(#SVGID_20_);fill:#E8CDA6;}
	.st64{clip-path:url(#SVGID_20_);fill:#4C4B48;}
	.st65{clip-path:url(#SVGID_20_);fill:#C6C6C6;}
	.st66{fill:#DDB237;}
	.st67{fill:#D3A42F;}
	.st68{clip-path:url(#SVGID_22_);fill:#CF6041;}
	.st69{clip-path:url(#SVGID_22_);fill:#A58760;}
	.st70{clip-path:url(#SVGID_22_);fill:#997A56;}
	.st71{clip-path:url(#SVGID_22_);fill:#FFF3E1;}
	.st72{clip-path:url(#SVGID_22_);fill:#AF9268;}
	.st73{clip-path:url(#SVGID_22_);fill:#C3C3C3;}
	.st74{clip-path:url(#SVGID_22_);fill:#F7E8D5;}
	.st75{clip-path:url(#SVGID_22_);fill:#2D3A49;}
	.st76{clip-path:url(#SVGID_22_);fill:#E8CDA6;}
	.st77{fill:#FCFCFC;}
	.st78{clip-path:url(#SVGID_24_);fill:#CF6041;}
	.st79{clip-path:url(#SVGID_24_);fill:#846645;}
	.st80{clip-path:url(#SVGID_24_);fill:#7C5D3E;}
	.st81{clip-path:url(#SVGID_24_);fill:#FFFFFF;}
	.st82{clip-path:url(#SVGID_24_);fill:#967951;}
	.st83{clip-path:url(#SVGID_24_);fill:#C6C6C6;}
	.st84{clip-path:url(#SVGID_24_);fill:#C3C3C3;}
	.st85{clip-path:url(#SVGID_24_);fill:#F7F7F7;}
	.st86{clip-path:url(#SVGID_24_);fill:#E8CDA6;}
	.st87{fill:#A0835D;}
	.st88{fill:#F4E0C6;}
	.st89{fill:#846645;}
	.st90{fill:#F4E9DF;fill-opacity:0.46;stroke:#2D3A49;stroke-linecap:round;stroke-linejoin:round;stroke-miterlimit:10;}
	.st91{fill:#F7F7F7;}
	.st92{clip-path:url(#SVGID_26_);fill:#95BDC3;}
	.st93{clip-path:url(#SVGID_26_);fill:#E8CDA6;}
	.st94{clip-path:url(#SVGID_26_);fill:#E8CEA8;}
	.st95{clip-path:url(#SVGID_26_);}
	.st96{fill:#1F2A33;}
	.st97{fill:#AA4444;}
	.st98{fill:#A04242;}
	.st99{clip-path:url(#SVGID_32_);fill:#95BDC3;}
	.st100{clip-path:url(#SVGID_32_);fill:#E8CDA6;}
	.st101{clip-path:url(#SVGID_32_);fill:#E8CEA8;}
	.st102{clip-path:url(#SVGID_32_);}
	.st103{clip-path:url(#SVGID_38_);fill:#95BDC3;}
	.st104{clip-path:url(#SVGID_38_);fill:#E8CDA6;}
	.st105{clip-path:url(#SVGID_38_);fill:#E8CEA8;}
	.st106{clip-path:url(#SVGID_38_);}
	.st107{clip-path:url(#SVGID_44_);fill:#CF6041;}
	.st108{clip-path:url(#SVGID_44_);fill:#E8CDA6;}
	.st109{clip-path:url(#SVGID_44_);fill:#E8CEA8;}
	.st110{clip-path:url(#SVGID_44_);}
	.st111{fill:#E2C9AF;}
	.st112{fill:#EAD2B5;}
	.st113{clip-path:url(#SVGID_44_);fill:#2D3A49;}
	.st114{clip-path:url(#SVGID_50_);fill:#95BDC3;}
	.st115{clip-path:url(#SVGID_50_);fill:#E8CDA6;}
	.st116{clip-path:url(#SVGID_50_);fill:#E8CEA8;}
	.st117{clip-path:url(#SVGID_50_);}
	.st118{clip-path:url(#SVGID_56_);fill:#CF6041;}
	.st119{clip-path:url(#SVGID_56_);fill:#E8CDA6;}
	.st120{clip-path:url(#SVGID_56_);fill:#E8CEA8;}
	.st121{clip-path:url(#SVGID_56_);fill:#2D3A49;}
	.st122{clip-path:url(#SVGID_56_);}
	.st123{fill:#AF9268;}
	.st124{fill:#A58760;}
	.st125{fill:#ADACAC;}
	.st126{clip-path:url(#SVGID_62_);fill:#95BDC3;}
	.st127{clip-path:url(#SVGID_62_);fill:#E8CDA6;}
	.st128{clip-path:url(#SVGID_62_);fill:#E8CEA8;}
	.st129{clip-path:url(#SVGID_62_);}
	.st130{fill:#C6C6C6;}
	.st131{clip-path:url(#SVGID_68_);fill:#95BDC3;}
	.st132{clip-path:url(#SVGID_68_);fill:#E8CDA6;}
	.st133{clip-path:url(#SVGID_68_);fill:#E8CEA8;}
	.st134{clip-path:url(#SVGID_68_);}
	.st135{clip-path:url(#SVGID_74_);fill:#CF6041;}
	.st136{clip-path:url(#SVGID_74_);fill:#E8CDA6;}
	.st137{clip-path:url(#SVGID_74_);fill:#E8CEA8;}
	.st138{clip-path:url(#SVGID_74_);}
	.st139{fill:#967951;}
	.st140{fill:#7C5D3E;}
	.st141{fill:#6D3A21;}
	</style>
	<g>
		<defs>
			<path id="SVGID_19_" d="M167.2-7.8H12.8v154.4h0.5c-0.3,2.8-0.5,5.6-0.5,8.5c0,42.6,34.6,77.2,77.2,77.2s77.2-34.6,77.2-77.2
			c0-2.9-0.2-5.7-0.5-8.5h0.5V-7.8z"/>
		</defs>
		<clipPath id="SVGID_2_">
			<use xlink:href="#SVGID_19_" style="overflow:visible;"/>
		</clipPath>
		<path class="st1" d="M67,100c3.8-2.4,6-5,7-13l31.7,2.7c0,1.7-0.5,9,3.3,11.4l-18.6,20.8L67,100z"/>
		<path class="st2" d="M102.4,108.3l9.6-8.3c-3.8-2.4-6.3-8.6-6.3-10.3H75.3C77.4,96,91.9,106.8,102.4,108.3"/>
		<path style="clip-path:url(#SVGID_2_);fill:#504F4B;" d="M125.5,267.6c4-137.1,19.3-161.8,9.3-165l-24.3-4.8
		c-8.1,6.2-10.5,14.6-20,14.6c-9.5,0-13-8.4-21.1-14.6l-23.1,4.8c-10.1,3.2,8.4,27.9,12.4,165H125.5z"/>
		<path class="st4" d="M64.1,64.8c0,0,3.9,13.6,6.3,19.4c2.5,5.8,12,14.5,14.9,14.5c2.9,0,14.2-2.5,14.2-2.5s9.1-5,11.2-11.2
		c2.1-6.2,6.8-29.7,6.8-29.7l-1.4-15.9l-26.2-4.2l-25,5L64.1,64.8z"/>
		<path class="st2" d="M85.3,98.7c0,0,18.7,2.3,25.3-13.6c2.5-6,6.8-29.7,6.8-29.7l-1.4-15.9l-39.6-4.2"/>
		<path style="clip-path:url(#SVGID_2_);fill:#504F4B;" d="M137.7,106.3l-7.2,47.4l13.8,37.2l7.5,74.4c0,0,0.3,5.1,4.5,4.2l4.2-0.9
		v-3.3c0,0-0.4-81,0-82C160.9,182.2,137.7,106.3,137.7,106.3"/>
		<polygon style="clip-path:url(#SVGID_2_);fill:#4C4B48;" points="133,155.6 119.3,179.8 115.8,225.3 86.8,268.6 125.2,268.6 	"/>
		<path style="clip-path:url(#SVGID_2_);fill:#C6C6C6;" d="M64.5,57.4c-0.2,0.8-4.2-9.4,0-13.3c0,0-2.3-8.5,0.5-14.1
		c0,0,3.2-2.6,4.3-3.4L74,22l5.5-0.9l23.6,2.5l7.8,8.3l2.8-1.9l8,12.5l-4.2,15l-2.5,9.9l-3.1-1.5l2.3-16.4l-6.4,0.6
		c0,0,1.9-5.8,0.3-6.9c-1.7-1.1-7.1-5.2-12.1-3c-5,2.2-15.4,11.2-20,8C68.8,43.1,67,42,64.5,57.4"/>
		<path style="clip-path:url(#SVGID_2_);fill:#504F4B;" d="M44.4,106.3l7,48.3l-13.6,37.3l-7.6,73.4c0,0-0.3,5.1-4.5,4.2l-4.2-0.9
		v-3.3c0,0,0.4-81,0-82C21.2,182.2,44.4,106.3,44.4,106.3"/>
	</g>
	<path class="st91" d="M70,97l-3.8,1.5c0,0,10.8,17.5,23.8,17.5s23.5-17.6,23.5-17.6L109,97c0,0-7,14-19,13S70,97,70,97z"/>
</svg>
